Untitled
…
res.cox <- coxph(
  Surv(age, event) ~ species 
  #+ sex 
  + transfers 
  + born_in_captivity
  , data = df
  )
res.cox |> 
  broom::tidy()

# A tibble: 31 × 5
   term                         estimate std.error statistic p.value
   <chr>                           <dbl>     <dbl>     <dbl>   <dbl>
 1 speciesAtlantic Spotted         3.28      1.23     2.67   0.00763
 2 speciesAtlantic White- Sided    1.88      0.916    2.05   0.0403 
 3 speciesBackcross              -12.7    1197.      -0.0106 0.992  
 4 speciesBeluga                   0.673     0.740    0.910  0.363  
 5 speciesBeluga Whale             0.789     0.746    1.06   0.290  
 6 speciesBottlenose               0.454     0.709    0.640  0.522  
 7 speciesCommerson's              1.46      0.764    1.91   0.0562 
 8 speciesCommon                   1.32      1.00     1.32   0.187  
 9 speciesCommon, Long-beak        1.67      1.23     1.36   0.175  
10 speciesCommon; Saddleback       1.95      1.00     1.94   0.0519 
# ℹ 21 more rows
…
